Date : 2019-11-30 02:07:27
Directory : c:\Users\patuf\OneDrive\Desktop\gam-sync
Total : 131 files,  12235 codes, 251 comments, 1219 blanks, all 13705 lines

Languages
+--------------+------------+------------+------------+------------+------------+
| language     | files      | code       | comment    | blank      | total      |
+--------------+------------+------------+------------+------------+------------+
| Dart         |         71 |     11,316 |        150 |      1,084 |     12,550 |
| JSON         |          8 |        307 |          0 |          2 |        309 |
| Groovy       |          6 |        189 |          4 |         38 |        231 |
| XML          |         25 |        165 |         50 |         16 |        231 |
| Java         |          4 |         71 |          3 |         17 |         91 |
| Batch        |          1 |         66 |          0 |         25 |         91 |
| YAML         |          1 |         57 |         38 |         12 |        107 |
| Properties   |          9 |         22 |          3 |          6 |         31 |
| Objective-C  |          2 |         17 |          1 |          6 |         24 |
| Markdown     |          2 |         13 |          0 |          9 |         22 |
| Shell Script |          1 |          8 |          2 |          1 |         11 |
| C++          |          1 |          4 |          0 |          3 |          7 |
+--------------+------------+------------+------------+------------+------------+

Directories
+-----------------------------------------------------------------------------------------------------------------------+------------+------------+------------+------------+------------+
| path                                                                                                                  | files      | code       | comment    | blank      | total      |
+-----------------------------------------------------------------------------------------------------------------------+------------+------------+------------+------------+------------+
| .                                                                                                                     |        131 |     12,235 |        251 |      1,219 |     13,705 |
| android                                                                                                               |         14 |        252 |         26 |         37 |        315 |
| android1                                                                                                              |         21 |        348 |         32 |         63 |        443 |
| android1\.gradle                                                                                                      |          4 |          1 |          1 |          4 |          6 |
| android1\.gradle\4.10.2                                                                                               |          1 |          0 |          0 |          1 |          1 |
| android1\.gradle\5.1.1                                                                                                |          1 |          0 |          0 |          1 |          1 |
| android1\.gradle\buildOutputCleanup                                                                                   |          1 |          1 |          1 |          1 |          3 |
| android1\.gradle\vcs-1                                                                                                |          1 |          0 |          0 |          1 |          1 |
| android1\app                                                                                                          |         10 |        185 |         30 |         24 |        239 |
| android1\app\release                                                                                                  |          1 |          1 |          0 |          0 |          1 |
| android1\app\src                                                                                                      |          7 |         89 |         27 |         14 |        130 |
| android1\app\src\debug                                                                                                |          1 |          4 |          3 |          1 |          8 |
| android1\app\src\main                                                                                                 |          5 |         81 |         21 |         12 |        114 |
| android1\app\src\main\java                                                                                            |          2 |         44 |          3 |          7 |         54 |
| android1\app\src\main\java\es                                                                                         |          1 |         11 |          0 |          3 |         14 |
| android1\app\src\main\java\es\kibou                                                                                   |          1 |         11 |          0 |          3 |         14 |
| android1\app\src\main\java\es\kibou\gameapp                                                                           |          1 |         11 |          0 |          3 |         14 |
| android1\app\src\main\java\es\kibou\gameapp\gameapp                                                                   |          1 |         11 |          0 |          3 |         14 |
| android1\app\src\main\java\io                                                                                         |          1 |         33 |          3 |          4 |         40 |
| android1\app\src\main\java\io\flutter                                                                                 |          1 |         33 |          3 |          4 |         40 |
| android1\app\src\main\java\io\flutter\plugins                                                                         |          1 |         33 |          3 |          4 |         40 |
| android1\app\src\main\res                                                                                             |          2 |         10 |          9 |          3 |         22 |
| android1\app\src\main\res\drawable                                                                                    |          1 |          4 |          7 |          2 |         13 |
| android1\app\src\main\res\values                                                                                      |          1 |          6 |          2 |          1 |          9 |
| android1\app\src\profile                                                                                              |          1 |          4 |          3 |          1 |          8 |
| android1\gradle                                                                                                       |          1 |          5 |          1 |          1 |          7 |
| android1\gradle\wrapper                                                                                               |          1 |          5 |          1 |          1 |          7 |
| android\app                                                                                                           |          9 |        164 |         25 |         27 |        216 |
| android\app\src                                                                                                       |          7 |         73 |         24 |         17 |        114 |
| android\app\src\androidTest                                                                                           |          1 |         16 |          0 |          7 |         23 |
| android\app\src\androidTest\java                                                                                      |          1 |         16 |          0 |          7 |         23 |
| android\app\src\androidTest\java\es                                                                                   |          1 |         16 |          0 |          7 |         23 |
| android\app\src\androidTest\java\es\kibou                                                                             |          1 |         16 |          0 |          7 |         23 |
| android\app\src\androidTest\java\es\kibou\gameapp                                                                     |          1 |         16 |          0 |          7 |         23 |
| android\app\src\debug                                                                                                 |          1 |          4 |          3 |          1 |          8 |
| android\app\src\main                                                                                                  |          4 |         49 |         18 |          8 |         75 |
| android\app\src\main\java                                                                                             |          1 |         11 |          0 |          3 |         14 |
| android\app\src\main\java\com                                                                                         |          1 |         11 |          0 |          3 |         14 |
| android\app\src\main\java\com\gamsync                                                                                 |          1 |         11 |          0 |          3 |         14 |
| android\app\src\main\java\com\gamsync\app                                                                             |          1 |         11 |          0 |          3 |         14 |
| android\app\src\main\res                                                                                              |          2 |         10 |          9 |          3 |         22 |
| android\app\src\main\res\drawable                                                                                     |          1 |          4 |          7 |          2 |         13 |
| android\app\src\main\res\values                                                                                       |          1 |          6 |          2 |          1 |          9 |
| android\app\src\profile                                                                                               |          1 |          4 |          3 |          1 |          8 |
| android\gradle                                                                                                        |          1 |          5 |          1 |          1 |          7 |
| android\gradle\wrapper                                                                                                |          1 |          5 |          1 |          1 |          7 |
| assets                                                                                                                |         14 |         14 |          0 |          0 |         14 |
| assets\achievements                                                                                                   |         12 |         12 |          0 |          0 |         12 |
| assets\achievements\chats                                                                                             |          1 |          1 |          0 |          0 |          1 |
| assets\achievements\friends                                                                                           |          1 |          1 |          0 |          0 |          1 |
| assets\achievements\games                                                                                             |          5 |          5 |          0 |          0 |          5 |
| assets\achievements\xp                                                                                                |          5 |          5 |          0 |          0 |          5 |
| ios                                                                                                                   |          9 |        238 |          5 |         16 |        259 |
| ios\Flutter                                                                                                           |          1 |          8 |          2 |          1 |         11 |
| ios\Runner                                                                                                            |          8 |        230 |          3 |         15 |        248 |
| ios\Runner\Assets.xcassets                                                                                            |          3 |        148 |          0 |          4 |        152 |
| ios\Runner\Assets.xcassets\AppIcon.appiconset                                                                         |          1 |        122 |          0 |          1 |        123 |
| ios\Runner\Assets.xcassets\LaunchImage.imageset                                                                       |          2 |         26 |          0 |          3 |         29 |
| ios\Runner\Base.lproj                                                                                                 |          2 |         61 |          2 |          2 |         65 |
| lib                                                                                                                   |         70 |     11,302 |        140 |      1,077 |     12,519 |
| lib\src                                                                                                               |         68 |     11,197 |        134 |      1,061 |     12,392 |
| lib\src\models                                                                                                        |          6 |        579 |          2 |         75 |        656 |
| lib\src\models\games                                                                                                  |          4 |        530 |          2 |         68 |        600 |
| lib\src\pages                                                                                                         |         42 |      8,457 |         69 |        488 |      9,014 |
| lib\src\pages\auth                                                                                                    |          5 |      1,347 |         46 |         72 |      1,465 |
| lib\src\pages\user                                                                                                    |         37 |      7,110 |         23 |        416 |      7,549 |
| lib\src\pages\user\admin                                                                                              |          1 |        262 |          6 |         10 |        278 |
| lib\src\pages\user\events                                                                                             |          3 |        543 |          5 |         32 |        580 |
| lib\src\pages\user\message                                                                                            |          5 |        943 |         11 |         81 |      1,035 |
| lib\src\pages\user\message\chats                                                                                      |          1 |        302 |          3 |         27 |        332 |
| lib\src\pages\user\message\rooms                                                                                      |          3 |        472 |          8 |         39 |        519 |
| lib\src\pages\user\profile                                                                                            |         21 |      4,256 |          1 |        229 |      4,486 |
| lib\src\pages\user\profile\settings                                                                                   |         15 |      3,106 |          1 |        160 |      3,267 |
| lib\src\pages\user\profile\settings\account                                                                           |          1 |        383 |          0 |         12 |        395 |
| lib\src\pages\user\profile\settings\games                                                                             |          7 |      1,884 |          1 |         90 |      1,975 |
| lib\src\pages\user\profile\settings\games\games                                                                       |          6 |      1,810 |          1 |         85 |      1,896 |
| lib\src\pages\user\profile\settings\policy                                                                            |          2 |         52 |          0 |          6 |         58 |
| lib\src\pages\user\profile\stats                                                                                      |          1 |        213 |          0 |         15 |        228 |
| lib\src\pages\user\profile\tabs                                                                                       |          1 |         90 |          0 |          8 |         98 |
| lib\src\pages\user\users                                                                                              |          2 |        233 |          0 |         10 |        243 |
| lib\src\providers                                                                                                     |         15 |      2,019 |         63 |        485 |      2,567 |
| lib\src\providers\games                                                                                               |          5 |        566 |          0 |        206 |        772 |
| lib\src\utils                                                                                                         |          5 |        142 |          0 |         13 |        155 |
| test                                                                                                                  |          1 |         14 |         10 |          7 |         31 |
+-----------------------------------------------------------------------------------------------------------------------+------------+------------+------------+------------+------------+

Files
+-----------------------------------------------------------------------------------------------------------------------+--------------+------------+------------+------------+------------+
| filename                                                                                                              | language     | code       | comment    | blank      | total      |
+-----------------------------------------------------------------------------------------------------------------------+--------------+------------+------------+------------+------------+
| c:\Users\patuf\OneDrive\Desktop\gam-sync\README.md                                                                    | Markdown     |         10 |          0 |          7 |         17 |
| c:\Users\patuf\OneDrive\Desktop\gam-sync\android1\.gradle\4.10.2\gc.properties                                        | Properties   |          0 |          0 |          1 |          1 |
| c:\Users\patuf\OneDrive\Desktop\gam-sync\android1\.gradle\5.1.1\gc.properties                                         | Properties   |          0 |          0 |          1 |          1 |
| c:\Users\patuf\OneDrive\Desktop\gam-sync\android1\.gradle\buildOutputCleanup\cache.properties                         | Properties   |          1 |          1 |          1 |          3 |
| c:\Users\patuf\OneDrive\Desktop\gam-sync\android1\.gradle\vcs-1\gc.properties                                         | Properties   |          0 |          0 |          1 |          1 |
| c:\Users\patuf\OneDrive\Desktop\gam-sync\android1\app\build.gradle                                                    | Groovy       |         55 |          3 |         10 |         68 |
| c:\Users\patuf\OneDrive\Desktop\gam-sync\android1\app\google-services.json                                            | JSON         |         40 |          0 |          0 |         40 |
| c:\Users\patuf\OneDrive\Desktop\gam-sync\android1\app\release\output.json                                             | JSON         |          1 |          0 |          0 |          1 |
| c:\Users\patuf\OneDrive\Desktop\gam-sync\android1\app\src\debug\AndroidManifest.xml                                   | XML          |          4 |          3 |          1 |          8 |
| c:\Users\patuf\OneDrive\Desktop\gam-sync\android1\app\src\main\AndroidManifest.xml                                    | XML          |         27 |          9 |          2 |         38 |
| c:\Users\patuf\OneDrive\Desktop\gam-sync\android1\app\src\main\java\es\kibou\gameapp\gameapp\MainActivity.java        | Java         |         11 |          0 |          3 |         14 |
| c:\Users\patuf\OneDrive\Desktop\gam-sync\android1\app\src\main\java\io\flutter\plugins\GeneratedPluginRegistrant.java | Java         |         33 |          3 |          4 |         40 |
| c:\Users\patuf\OneDrive\Desktop\gam-sync\android1\app\src\main\res\drawable\launch_background.xml                     | XML          |          4 |          7 |          2 |         13 |
| c:\Users\patuf\OneDrive\Desktop\gam-sync\android1\app\src\main\res\values\styles.xml                                  | XML          |          6 |          2 |          1 |          9 |
| c:\Users\patuf\OneDrive\Desktop\gam-sync\android1\app\src\profile\AndroidManifest.xml                                 | XML          |          4 |          3 |          1 |          8 |
| c:\Users\patuf\OneDrive\Desktop\gam-sync\android1\build.gradle                                                        | Groovy       |         31 |          0 |          5 |         36 |
| c:\Users\patuf\OneDrive\Desktop\gam-sync\android1\google-services.json                                                | JSON         |         40 |          0 |          0 |         40 |
| c:\Users\patuf\OneDrive\Desktop\gam-sync\android1\gradle.properties                                                   | Properties   |          3 |          0 |          0 |          3 |
| c:\Users\patuf\OneDrive\Desktop\gam-sync\android1\gradle\wrapper\gradle-wrapper.properties                            | Properties   |          5 |          1 |          1 |          7 |
| c:\Users\patuf\OneDrive\Desktop\gam-sync\android1\gradlew.bat                                                         | Batch        |         66 |          0 |         25 |         91 |
| c:\Users\patuf\OneDrive\Desktop\gam-sync\android1\local.properties                                                    | Properties   |          5 |          0 |          0 |          5 |
| c:\Users\patuf\OneDrive\Desktop\gam-sync\android1\settings.gradle                                                     | Groovy       |         12 |          0 |          4 |         16 |
| c:\Users\patuf\OneDrive\Desktop\gam-sync\android\app\build.gradle                                                     | Groovy       |         51 |          1 |         10 |         62 |
| c:\Users\patuf\OneDrive\Desktop\gam-sync\android\app\google-services.json                                             | JSON         |         40 |          0 |          0 |         40 |
| c:\Users\patuf\OneDrive\Desktop\gam-sync\android\app\src\androidTest\java\es\kibou\gameapp\MainActivityTest.java      | Java         |         16 |          0 |          7 |         23 |
| c:\Users\patuf\OneDrive\Desktop\gam-sync\android\app\src\debug\AndroidManifest.xml                                    | XML          |          4 |          3 |          1 |          8 |
| c:\Users\patuf\OneDrive\Desktop\gam-sync\android\app\src\main\AndroidManifest.xml                                     | XML          |         28 |          9 |          2 |         39 |
| c:\Users\patuf\OneDrive\Desktop\gam-sync\android\app\src\main\java\com\gamsync\app\MainActivity.java                  | Java         |         11 |          0 |          3 |         14 |
| c:\Users\patuf\OneDrive\Desktop\gam-sync\android\app\src\main\res\drawable\launch_background.xml                      | XML          |          4 |          7 |          2 |         13 |
| c:\Users\patuf\OneDrive\Desktop\gam-sync\android\app\src\main\res\values\styles.xml                                   | XML          |          6 |          2 |          1 |          9 |
| c:\Users\patuf\OneDrive\Desktop\gam-sync\android\app\src\profile\AndroidManifest.xml                                  | XML          |          4 |          3 |          1 |          8 |
| c:\Users\patuf\OneDrive\Desktop\gam-sync\android\build.gradle                                                         | Groovy       |         28 |          0 |          5 |         33 |
| c:\Users\patuf\OneDrive\Desktop\gam-sync\android\google-services.json                                                 | JSON         |         40 |          0 |          0 |         40 |
| c:\Users\patuf\OneDrive\Desktop\gam-sync\android\gradle.properties                                                    | Properties   |          3 |          0 |          0 |          3 |
| c:\Users\patuf\OneDrive\Desktop\gam-sync\android\gradle\wrapper\gradle-wrapper.properties                             | Properties   |          5 |          1 |          1 |          7 |
| c:\Users\patuf\OneDrive\Desktop\gam-sync\android\settings.gradle                                                      | Groovy       |         12 |          0 |          4 |         16 |
| c:\Users\patuf\OneDrive\Desktop\gam-sync\assets\achievements\chats\diamond.svg                                        | XML          |          1 |          0 |          0 |          1 |
| c:\Users\patuf\OneDrive\Desktop\gam-sync\assets\achievements\friends\gold.svg                                         | XML          |          1 |          0 |          0 |          1 |
| c:\Users\patuf\OneDrive\Desktop\gam-sync\assets\achievements\games\games_bronze.svg                                   | XML          |          1 |          0 |          0 |          1 |
| c:\Users\patuf\OneDrive\Desktop\gam-sync\assets\achievements\games\games_diamond.svg                                  | XML          |          1 |          0 |          0 |          1 |
| c:\Users\patuf\OneDrive\Desktop\gam-sync\assets\achievements\games\games_gold.svg                                     | XML          |          1 |          0 |          0 |          1 |
| c:\Users\patuf\OneDrive\Desktop\gam-sync\assets\achievements\games\games_platinum.svg                                 | XML          |          1 |          0 |          0 |          1 |
| c:\Users\patuf\OneDrive\Desktop\gam-sync\assets\achievements\games\games_silver.svg                                   | XML          |          1 |          0 |          0 |          1 |
| c:\Users\patuf\OneDrive\Desktop\gam-sync\assets\achievements\xp\xp_bronze.svg                                         | XML          |          1 |          0 |          0 |          1 |
| c:\Users\patuf\OneDrive\Desktop\gam-sync\assets\achievements\xp\xp_diamond.svg                                        | XML          |          1 |          0 |          0 |          1 |
| c:\Users\patuf\OneDrive\Desktop\gam-sync\assets\achievements\xp\xp_gold.svg                                           | XML          |          1 |          0 |          0 |          1 |
| c:\Users\patuf\OneDrive\Desktop\gam-sync\assets\achievements\xp\xp_platinum.svg                                       | XML          |          1 |          0 |          0 |          1 |
| c:\Users\patuf\OneDrive\Desktop\gam-sync\assets\achievements\xp\xp_silver.svg                                         | XML          |          1 |          0 |          0 |          1 |
| c:\Users\patuf\OneDrive\Desktop\gam-sync\assets\countries.json                                                        | JSON         |          1 |          0 |          0 |          1 |
| c:\Users\patuf\OneDrive\Desktop\gam-sync\assets\logo.svg                                                              | XML          |          1 |          0 |          0 |          1 |
| c:\Users\patuf\OneDrive\Desktop\gam-sync\ios\Flutter\flutter_export_environment.sh                                    | Shell Script |          8 |          2 |          1 |         11 |
| c:\Users\patuf\OneDrive\Desktop\gam-sync\ios\Runner\AppDelegate.h                                                     | C++          |          4 |          0 |          3 |          7 |
| c:\Users\patuf\OneDrive\Desktop\gam-sync\ios\Runner\AppDelegate.m                                                     | Objective-C  |          9 |          1 |          4 |         14 |
| c:\Users\patuf\OneDrive\Desktop\gam-sync\ios\Runner\Assets.xcassets\AppIcon.appiconset\Contents.json                  | JSON         |        122 |          0 |          1 |        123 |
| c:\Users\patuf\OneDrive\Desktop\gam-sync\ios\Runner\Assets.xcassets\LaunchImage.imageset\Contents.json                | JSON         |         23 |          0 |          1 |         24 |
| c:\Users\patuf\OneDrive\Desktop\gam-sync\ios\Runner\Assets.xcassets\LaunchImage.imageset\README.md                    | Markdown     |          3 |          0 |          2 |          5 |
| c:\Users\patuf\OneDrive\Desktop\gam-sync\ios\Runner\Base.lproj\LaunchScreen.storyboard                                | XML          |         36 |          1 |          1 |         38 |
| c:\Users\patuf\OneDrive\Desktop\gam-sync\ios\Runner\Base.lproj\Main.storyboard                                        | XML          |         25 |          1 |          1 |         27 |
| c:\Users\patuf\OneDrive\Desktop\gam-sync\ios\Runner\main.m                                                            | Objective-C  |          8 |          0 |          2 |         10 |
| c:\Users\patuf\OneDrive\Desktop\gam-sync\lib\main.dart                                                                | Dart         |         50 |          6 |         14 |         70 |
| c:\Users\patuf\OneDrive\Desktop\gam-sync\lib\routes.dart                                                              | Dart         |         55 |          0 |          2 |         57 |
| c:\Users\patuf\OneDrive\Desktop\gam-sync\lib\src\models\Country.dart                                                  | Dart         |         40 |          0 |          7 |         47 |
| c:\Users\patuf\OneDrive\Desktop\gam-sync\lib\src\models\Notification.dart                                             | Dart         |          9 |          0 |          0 |          9 |
| c:\Users\patuf\OneDrive\Desktop\gam-sync\lib\src\models\games\BrawlStars.dart                                         | Dart         |        191 |          0 |         19 |        210 |
| c:\Users\patuf\OneDrive\Desktop\gam-sync\lib\src\models\games\LeagueOfLegends.dart                                    | Dart         |        188 |          0 |         32 |        220 |
| c:\Users\patuf\OneDrive\Desktop\gam-sync\lib\src\models\games\Minecraft.dart                                          | Dart         |          9 |          0 |          2 |         11 |
| c:\Users\patuf\OneDrive\Desktop\gam-sync\lib\src\models\games\Overwatch.dart                                          | Dart         |        142 |          2 |         15 |        159 |
| c:\Users\patuf\OneDrive\Desktop\gam-sync\lib\src\pages\auth\login_page.dart                                           | Dart         |        269 |          3 |          9 |        281 |
| c:\Users\patuf\OneDrive\Desktop\gam-sync\lib\src\pages\auth\new_register_page.dart                                    | Dart         |        454 |          9 |         17 |        480 |
| c:\Users\patuf\OneDrive\Desktop\gam-sync\lib\src\pages\auth\register_page.dart                                        | Dart         |        385 |         23 |         25 |        433 |
| c:\Users\patuf\OneDrive\Desktop\gam-sync\lib\src\pages\auth\screen_page.dart                                          | Dart         |         25 |          3 |          7 |         35 |
| c:\Users\patuf\OneDrive\Desktop\gam-sync\lib\src\pages\auth\start_page.dart                                           | Dart         |        214 |          8 |         14 |        236 |
| c:\Users\patuf\OneDrive\Desktop\gam-sync\lib\src\pages\user\achievements_page.dart                                    | Dart         |        112 |          0 |          4 |        116 |
| c:\Users\patuf\OneDrive\Desktop\gam-sync\lib\src\pages\user\activity_page.dart                                        | Dart         |        239 |          0 |         16 |        255 |
| c:\Users\patuf\OneDrive\Desktop\gam-sync\lib\src\pages\user\admin\admin_home_page.dart                                | Dart         |        262 |          6 |         10 |        278 |
| c:\Users\patuf\OneDrive\Desktop\gam-sync\lib\src\pages\user\events\add_event_page.dart                                | Dart         |        269 |          5 |         15 |        289 |
| c:\Users\patuf\OneDrive\Desktop\gam-sync\lib\src\pages\user\events\event_home_page.dart                               | Dart         |         63 |          0 |          5 |         68 |
| c:\Users\patuf\OneDrive\Desktop\gam-sync\lib\src\pages\user\events\event_page.dart                                    | Dart         |        211 |          0 |         12 |        223 |
| c:\Users\patuf\OneDrive\Desktop\gam-sync\lib\src\pages\user\match_page.dart                                           | Dart         |        343 |          0 |         12 |        355 |
| c:\Users\patuf\OneDrive\Desktop\gam-sync\lib\src\pages\user\message\chats\chatscreen_page.dart                        | Dart         |        302 |          3 |         27 |        332 |
| c:\Users\patuf\OneDrive\Desktop\gam-sync\lib\src\pages\user\message\messages_page.dart                                | Dart         |        169 |          0 |         15 |        184 |
| c:\Users\patuf\OneDrive\Desktop\gam-sync\lib\src\pages\user\message\rooms\roomoptions_page.dart                       | Dart         |         86 |          0 |          8 |         94 |
| c:\Users\patuf\OneDrive\Desktop\gam-sync\lib\src\pages\user\message\rooms\rooms_page.dart                             | Dart         |         47 |          0 |          4 |         51 |
| c:\Users\patuf\OneDrive\Desktop\gam-sync\lib\src\pages\user\message\rooms\roomscreen_page.dart                        | Dart         |        339 |          8 |         27 |        374 |
| c:\Users\patuf\OneDrive\Desktop\gam-sync\lib\src\pages\user\message_page.dart                                         | Dart         |         40 |          0 |          4 |         44 |
| c:\Users\patuf\OneDrive\Desktop\gam-sync\lib\src\pages\user\profile\options_page.dart                                 | Dart         |         91 |          0 |         13 |        104 |
| c:\Users\patuf\OneDrive\Desktop\gam-sync\lib\src\pages\user\profile\profile.dart                                      | Dart         |        623 |          0 |         22 |        645 |
| c:\Users\patuf\OneDrive\Desktop\gam-sync\lib\src\pages\user\profile\profile_image_page.dart                           | Dart         |         35 |          0 |          4 |         39 |
| c:\Users\patuf\OneDrive\Desktop\gam-sync\lib\src\pages\user\profile\seeAllGames_page.dart                             | Dart         |         98 |          0 |          7 |        105 |
| c:\Users\patuf\OneDrive\Desktop\gam-sync\lib\src\pages\user\profile\settings\account\account_edit_page.dart           | Dart         |        383 |          0 |         12 |        395 |
| c:\Users\patuf\OneDrive\Desktop\gam-sync\lib\src\pages\user\profile\settings\blocked_users_page.dart                  | Dart         |         94 |          0 |          8 |        102 |
| c:\Users\patuf\OneDrive\Desktop\gam-sync\lib\src\pages\user\profile\settings\edit_user.dart                           | Dart         |        129 |          0 |         13 |        142 |
| c:\Users\patuf\OneDrive\Desktop\gam-sync\lib\src\pages\user\profile\settings\games\add_game_page.dart                 | Dart         |         74 |          0 |          5 |         79 |
| c:\Users\patuf\OneDrive\Desktop\gam-sync\lib\src\pages\user\profile\settings\games\games\brawl_page.dart              | Dart         |        258 |          0 |         15 |        273 |
| c:\Users\patuf\OneDrive\Desktop\gam-sync\lib\src\pages\user\profile\settings\games\games\default_page.dart            | Dart         |        259 |          0 |         13 |        272 |
| c:\Users\patuf\OneDrive\Desktop\gam-sync\lib\src\pages\user\profile\settings\games\games\lol_page.dart                | Dart         |        455 |          1 |         19 |        475 |
| c:\Users\patuf\OneDrive\Desktop\gam-sync\lib\src\pages\user\profile\settings\games\games\mine_page.dart               | Dart         |        241 |          0 |         12 |        253 |
| c:\Users\patuf\OneDrive\Desktop\gam-sync\lib\src\pages\user\profile\settings\games\games\overwatch_page.dart          | Dart         |        252 |          0 |         14 |        266 |
| c:\Users\patuf\OneDrive\Desktop\gam-sync\lib\src\pages\user\profile\settings\games\games\pokego_page.dart             | Dart         |        345 |          0 |         12 |        357 |
| c:\Users\patuf\OneDrive\Desktop\gam-sync\lib\src\pages\user\profile\settings\policy\services_page.dart                | Dart         |         26 |          0 |          3 |         29 |
| c:\Users\patuf\OneDrive\Desktop\gam-sync\lib\src\pages\user\profile\settings\policy\terminos_page.dart                | Dart         |         26 |          0 |          3 |         29 |
| c:\Users\patuf\OneDrive\Desktop\gam-sync\lib\src\pages\user\profile\settings\privacy_page.dart                        | Dart         |        150 |          0 |         11 |        161 |
| c:\Users\patuf\OneDrive\Desktop\gam-sync\lib\src\pages\user\profile\settings\settings_page.dart                       | Dart         |        278 |          0 |          8 |        286 |
| c:\Users\patuf\OneDrive\Desktop\gam-sync\lib\src\pages\user\profile\settings\verify_email.dart                        | Dart         |        136 |          0 |         12 |        148 |
| c:\Users\patuf\OneDrive\Desktop\gam-sync\lib\src\pages\user\profile\stats\lol_stats.dart                              | Dart         |        213 |          0 |         15 |        228 |
| c:\Users\patuf\OneDrive\Desktop\gam-sync\lib\src\pages\user\profile\tabs\friends_page.dart                            | Dart         |         90 |          0 |          8 |         98 |
| c:\Users\patuf\OneDrive\Desktop\gam-sync\lib\src\pages\user\start_page.dart                                           | Dart         |        139 |          0 |         18 |        157 |
| c:\Users\patuf\OneDrive\Desktop\gam-sync\lib\src\pages\user\users\list_users_tab.dart                                 | Dart         |        108 |          0 |          5 |        113 |
| c:\Users\patuf\OneDrive\Desktop\gam-sync\lib\src\pages\user\users\search_users.dart                                   | Dart         |        125 |          0 |          5 |        130 |
| c:\Users\patuf\OneDrive\Desktop\gam-sync\lib\src\providers\activity_provider.dart                                     | Dart         |         18 |          0 |          4 |         22 |
| c:\Users\patuf\OneDrive\Desktop\gam-sync\lib\src\providers\admin_provider.dart                                        | Dart         |         24 |          0 |         11 |         35 |
| c:\Users\patuf\OneDrive\Desktop\gam-sync\lib\src\providers\chat_provider.dart                                         | Dart         |        152 |          2 |         26 |        180 |
| c:\Users\patuf\OneDrive\Desktop\gam-sync\lib\src\providers\events_provider.dart                                       | Dart         |        137 |          0 |         11 |        148 |
| c:\Users\patuf\OneDrive\Desktop\gam-sync\lib\src\providers\game_provider.dart                                         | Dart         |        137 |          4 |         41 |        182 |
| c:\Users\patuf\OneDrive\Desktop\gam-sync\lib\src\providers\games\Lol_provider.dart                                    | Dart         |        228 |          0 |         79 |        307 |
| c:\Users\patuf\OneDrive\Desktop\gam-sync\lib\src\providers\games\brawl_provider.dart                                  | Dart         |         98 |          0 |         35 |        133 |
| c:\Users\patuf\OneDrive\Desktop\gam-sync\lib\src\providers\games\mine_provider.dart                                   | Dart         |         92 |          0 |         36 |        128 |
| c:\Users\patuf\OneDrive\Desktop\gam-sync\lib\src\providers\games\overwatch_provider.dart                              | Dart         |         89 |          0 |         31 |        120 |
| c:\Users\patuf\OneDrive\Desktop\gam-sync\lib\src\providers\games\pokego_provider.dart                                 | Dart         |         59 |          0 |         25 |         84 |
| c:\Users\patuf\OneDrive\Desktop\gam-sync\lib\src\providers\match_provider.dart                                        | Dart         |        200 |          0 |          9 |        209 |
| c:\Users\patuf\OneDrive\Desktop\gam-sync\lib\src\providers\notification_provider.dart                                 | Dart         |         79 |          0 |          8 |         87 |
| c:\Users\patuf\OneDrive\Desktop\gam-sync\lib\src\providers\room_provider.dart                                         | Dart         |        102 |          0 |         43 |        145 |
| c:\Users\patuf\OneDrive\Desktop\gam-sync\lib\src\providers\search_provider.dart                                       | Dart         |         24 |          0 |          6 |         30 |
| c:\Users\patuf\OneDrive\Desktop\gam-sync\lib\src\providers\user_provider.dart                                         | Dart         |        580 |         57 |        120 |        757 |
| c:\Users\patuf\OneDrive\Desktop\gam-sync\lib\src\utils\hex_util.dart                                                  | Dart         |         11 |          0 |          3 |         14 |
| c:\Users\patuf\OneDrive\Desktop\gam-sync\lib\src\utils\indevelopment_util.dart                                        | Dart         |         47 |          0 |          3 |         50 |
| c:\Users\patuf\OneDrive\Desktop\gam-sync\lib\src\utils\provinces_util.dart                                            | Dart         |         59 |          0 |          2 |         61 |
| c:\Users\patuf\OneDrive\Desktop\gam-sync\lib\src\utils\screen_util.dart                                               | Dart         |         13 |          0 |          3 |         16 |
| c:\Users\patuf\OneDrive\Desktop\gam-sync\lib\src\utils\toast_util.dart                                                | Dart         |         12 |          0 |          2 |         14 |
| c:\Users\patuf\OneDrive\Desktop\gam-sync\pubspec.yaml                                                                 | YAML         |         57 |         38 |         12 |        107 |
| c:\Users\patuf\OneDrive\Desktop\gam-sync\test\widget_test.dart                                                        | Dart         |         14 |         10 |          7 |         31 |
| Total                                                                                                                 |              |     12,235 |        251 |      1,219 |     13,705 |
+-----------------------------------------------------------------------------------------------------------------------+--------------+------------+------------+------------+------------+