{
  "project_info": {
    "project_number": "189246765162",
    "firebase_url": "https://gameapp-99e0b.firebaseio.com",
    "project_id": "gameapp-99e0b",
    "storage_bucket": "gameapp-99e0b.appspot.com"
  },
  "client": [
    {
      "client_info": {
        "mobilesdk_app_id": "1:189246765162:android:927af55e5b820272",
        "android_client_info": {
          "package_name": "com.gamsync.app"
        }
      },
      "oauth_client": [
        {
          "client_id": "189246765162-n26glpbudilud34rb2c3o5aeahcp6t38.apps.googleusercontent.com",
          "client_type": 3
        }
      ],
      "api_key": [
        {
          "current_key": "AIzaSyDQSUdOr09mMh6bktCyHGAzd-9Sq9cP1k4"
        }
      ],
      "services": {
        "appinvite_service": {
          "other_platform_oauth_client": [
            {
              "client_id": "189246765162-n26glpbudilud34rb2c3o5aeahcp6t38.apps.googleusercontent.com",
              "client_type": 3
            }
          ]
        }
      }
    }
  ],
  "configuration_version": "1"
}